<?xml version="1.0" encoding="UTF-8" standalone="no"?>
<!-- Created with Inkscape (http://www.inkscape.org/) -->

<svg
   width="512"
   height="512"
   viewBox="0 0 135.46666 135.46666"
   version="1.1"
   id="svg508"
   inkscape:version="1.2.2 (b0a8486541, 2022-12-01)"
   sodipodi:docname="folder.svg"
   inkscape:export-filename="/home/eric/Projects/Code/flaresync/assets/logo.png"
   inkscape:export-xdpi="96"
   inkscape:export-ydpi="96"
   xml:space="preserve"
   xmlns:inkscape="http://www.inkscape.org/namespaces/inkscape"
   xmlns:sodipodi="http://sodipodi.sourceforge.net/DTD/sodipodi-0.dtd"
   xmlns="http://www.w3.org/2000/svg"
   xmlns:svg="http://www.w3.org/2000/svg"><sodipodi:namedview
     id="namedview510"
     pagecolor="#ffffff"
     bordercolor="#666666"
     borderopacity="1.0"
     inkscape:showpageshadow="2"
     inkscape:pageopacity="0.0"
     inkscape:pagecheckerboard="0"
     inkscape:deskcolor="#d1d1d1"
     inkscape:document-units="mm"
     showgrid="false"
     inkscape:zoom="0.8409652"
     inkscape:cx="337.11264"
     inkscape:cy="321.65421"
     inkscape:window-width="1632"
     inkscape:window-height="1127"
     inkscape:window-x="501"
     inkscape:window-y="800"
     inkscape:window-maximized="0"
     inkscape:current-layer="layer1"
     inkscape:pageshadow="2"
     units="px"
     width="512px" /><defs
     id="defs505" /><g
     inkscape:label="Layer 1"
     inkscape:groupmode="layer"
     id="layer1"><path
       style="fill:#ff573f;fill-opacity:1;stroke:none;stroke-width:0.307627px;stroke-linecap:butt;stroke-linejoin:miter;stroke-opacity:1"
       d="m 32.210814,131.18928 68.421906,-0.14095 c 0,0 19.03851,1.15303 18.94679,-16.72195 -0.054,-10.52829 -6.76579,-16.636337 -11.50698,-16.145614 -4.74117,0.490724 -9.057209,1.638854 -8.139942,-0.293671 0.917282,-1.932525 7.687372,-5.678686 2.456332,-15.163804 -5.802696,-10.521654 -18.680674,-4.333032 -18.680674,-4.333032 0,0 -13.467542,-25.962333 -36.497904,-12.688751 -23.030351,13.273594 -14.125286,32.230827 -14.125286,32.230827 0,0 -16.600124,-1.955812 -19.029481,16.546435 -2.644682,20.14219 18.155239,16.71051 18.155239,16.71051 z"
       id="path857"
       sodipodi:nodetypes="ccsssscscsc" /><path
       style="fill:#ffffff;fill-opacity:1;stroke:none;stroke-width:0.354645px;stroke-linecap:butt;stroke-linejoin:miter;stroke-opacity:1"
       d="M 52.685376,0.45972721 63.849298,22.65448 72.407638,11.243893 c 0,0 19.201728,27.992199 15.255382,45.425492 C 85.153896,67.753697 71.093977,79.065489 60.450136,79.380764 46.480802,79.794541 35.659501,76.805901 33.037561,57.93655 30.415609,39.0672 52.685376,0.45972721 52.685376,0.45972721 Z"
       id="path1704"
       sodipodi:nodetypes="cccsssc" /><path
       style="fill:#cc9900;fill-opacity:1;stroke:none;stroke-width:0.307627px;stroke-linecap:butt;stroke-linejoin:miter;stroke-opacity:1"
       d="m 53.722795,7.7134517 9.683821,19.2521783 7.423675,-9.897768 c 0,0 16.655966,24.280995 13.23283,39.402982 C 81.886652,66.085602 69.690799,75.897691 60.458112,76.171155 48.34081,76.530076 38.954195,73.937668 36.679863,57.570013 34.405531,41.202359 53.722795,7.7134517 53.722795,7.7134517 Z"
       id="path1067"
       sodipodi:nodetypes="cccsssc" /><path
       d="m 129.06252,109.51668 h -12.69937 l -3.61337,-3.61336 c -0.39685,-0.39686 -0.93525,-0.61976 -1.4968,-0.61976 h -9.70576 c -1.753438,0 -3.174838,1.4214 -3.174838,3.17484 v 19.04905 c 0,1.75344 1.4214,3.17484 3.174838,3.17484 h 27.5153 c 1.75343,0 3.17484,-1.4214 3.17484,-3.17484 v -14.81593 c 0,-1.75344 -1.42141,-3.17484 -3.17484,-3.17484 z m 0,17.99077 h -27.5153 V 108.4584 h 9.26789 l 3.61337,3.61337 c 0.39685,0.39685 0.93525,0.61975 1.49681,0.61975 h 13.13723 z"
       id="path5801"
       style="stroke-width:0.0661427" /></g></svg>
